{
    "EPAY": {
        "00843788042356": [
            5700,
            5700,
            "MONTHLY",
            "EPAY",
            "ULTRA"
        ],
        "00843788042363": [
            8700,
            8700,
            "MONTHLY",
            "EPAY",
            "ULTRA"
        ],
        "00843788042370": [
            11700,
            11700,
            "MONTHLY",
            "EPAY",
            "ULTRA"
        ],
        "00843788042387": [
            14700,
            14700,
            "MONTHLY",
            "EPAY",
            "ULTRA"
        ],
        "00843788021269": [
            1900,
            1900,
            "MONTHLY",
            "EPAY",
            "ULTRA"
        ],
        "00843788028817": [
            2400,
            2400,
            "MONTHLY",
            "EPAY",
            "ULTRA"
        ],
        "00843788015459": [
            2900,
            2900,
            "MONTHLY",
            "EPAY",
            "ULTRA"
        ],
        "00843788028824": [
            3400,
            3400,
            "MONTHLY",
            "EPAY",
            "ULTRA"
        ],
        "00843788015466": [
            3900,
            3900,
            "MONTHLY",
            "EPAY",
            "ULTRA"
        ],
        "00843788028831": [
            4400,
            4400,
            "MONTHLY",
            "EPAY",
            "ULTRA"
        ],
        "00843788039653": [
            4500,
            4500,
            "MONTHLY",
            "EPAY",
            "ULTRA"
        ],
        "00843788015473": [
            4900,
            4900,
            "MONTHLY",
            "EPAY",
            "ULTRA"
        ],
        "00843788039660": [
            5000,
            5000,
            "MONTHLY",
            "EPAY",
            "ULTRA"
        ],
        "00843788028848": [
            5400,
            5400,
            "MONTHLY",
            "EPAY",
            "ULTRA"
        ],
        "00843788039677": [
            5500,
            5500,
            "MONTHLY",
            "EPAY",
            "ULTRA"
        ],
        "00843788017354": [
            5900,
            5900,
            "MONTHLY",
            "EPAY",
            "ULTRA"
        ],
        "00843788039684": [
            6000,
            6000,
            "MONTHLY",
            "EPAY",
            "ULTRA"
        ],
        "00843788028855": [
            6400,
            6400,
            "MONTHLY",
            "EPAY",
            "ULTRA"
        ],
        "00843788039691": [
            6500,
            6500,
            "MONTHLY",
            "EPAY",
            "ULTRA"
        ],
        "00843788028862": [
            6900,
            6900,
            "MONTHLY",
            "EPAY",
            "ULTRA"
        ],
        "00843788039707": [
            7000,
            7000,
            "MONTHLY",
            "EPAY",
            "ULTRA"
        ],
        "00843788028879": [
            7400,
            7400,
            "MONTHLY",
            "EPAY",
            "ULTRA"
        ],
        "00843788039714": [
            7500,
            7500,
            "MONTHLY",
            "EPAY",
            "ULTRA"
        ],
        "00843788028886": [
            7900,
            7900,
            "MONTHLY",
            "EPAY",
            "ULTRA"
        ],
        "00843788039721": [
            8000,
            8000,
            "MONTHLY",
            "EPAY",
            "ULTRA"
        ],
        "00843788028893": [
            8400,
            8400,
            "MONTHLY",
            "EPAY",
            "ULTRA"
        ],
        "00843788039738": [
            8500,
            8500,
            "MONTHLY",
            "EPAY",
            "ULTRA"
        ],
        "00843788028909": [
            8900,
            8900,
            "MONTHLY",
            "EPAY",
            "ULTRA"
        ],
        "00843788039745": [
            9400,
            9400,
            "MONTHLY",
            "EPAY",
            "ULTRA"
        ],
        "00843788028244": [
            9900,
            9900,
            "MONTHLY",
            "EPAY",
            "ULTRA"
        ],
        "00843788026271": [
            1900,
            1900,
            "MONTHLY",
            "EPAY",
            "ULTRA"
        ],
        "00843788028916": [
            2400,
            2400,
            "MONTHLY",
            "EPAY",
            "ULTRA"
        ],
        "00843788026288": [
            2900,
            2900,
            "MONTHLY",
            "EPAY",
            "ULTRA"
        ],
        "00843788028923": [
            3400,
            3400,
            "MONTHLY",
            "EPAY",
            "ULTRA"
        ],
        "00843788026295": [
            3900,
            3900,
            "MONTHLY",
            "EPAY",
            "ULTRA"
        ],
        "00843788028930": [
            4400,
            4400,
            "MONTHLY",
            "EPAY",
            "ULTRA"
        ],
        "00843788039752": [
            4500,
            4500,
            "MONTHLY",
            "EPAY",
            "ULTRA"
        ],
        "00843788026301": [
            4900,
            4900,
            "MONTHLY",
            "EPAY",
            "ULTRA"
        ],
        "00843788039769": [
            5000,
            5000,
            "MONTHLY",
            "EPAY",
            "ULTRA"
        ],
        "00843788028947": [
            5400,
            5400,
            "MONTHLY",
            "EPAY",
            "ULTRA"
        ],
        "00843788039776": [
            5500,
            5500,
            "MONTHLY",
            "EPAY",
            "ULTRA"
        ],
        "00843788026318": [
            5900,
            5900,
            "MONTHLY",
            "EPAY",
            "ULTRA"
        ],
        "00843788039783": [
            6000,
            6000,
            "MONTHLY",
            "EPAY",
            "ULTRA"
        ],
        "00843788028954": [
            6400,
            6400,
            "MONTHLY",
            "EPAY",
            "ULTRA"
        ],
        "00843788039790": [
            6500,
            6500,
            "MONTHLY",
            "EPAY",
            "ULTRA"
        ],
        "00843788028961": [
            6900,
            6900,
            "MONTHLY",
            "EPAY",
            "ULTRA"
        ],
        "00843788039806": [
            7000,
            7000,
            "MONTHLY",
            "EPAY",
            "ULTRA"
        ],
        "00843788028978": [
            7400,
            7400,
            "MONTHLY",
            "EPAY",
            "ULTRA"
        ],
        "00843788039813": [
            7500,
            7500,
            "MONTHLY",
            "EPAY",
            "ULTRA"
        ],
        "00843788028985": [
            7900,
            7900,
            "MONTHLY",
            "EPAY",
            "ULTRA"
        ],
        "00843788039820": [
            8000,
            8000,
            "MONTHLY",
            "EPAY",
            "ULTRA"
        ],
        "00843788028992": [
            8400,
            8400,
            "MONTHLY",
            "EPAY",
            "ULTRA"
        ],
        "00843788039837": [
            8500,
            8500,
            "MONTHLY",
            "EPAY",
            "ULTRA"
        ],
        "00843788029005": [
            8900,
            8900,
            "MONTHLY",
            "EPAY",
            "ULTRA"
        ],
        "00843788039844": [
            9400,
            9400,
            "MONTHLY",
            "EPAY",
            "ULTRA"
        ],
        "00843788028237": [
            9900,
            9900,
            "MONTHLY",
            "EPAY",
            "ULTRA"
        ],
        "00843788041892": [
            2300,
            2300,
            "MONTHLY",
            "EPAY",
            "ULTRA"
        ],
        "00843788041908": [
            2800,
            2800,
            "MONTHLY",
            "EPAY",
            "ULTRA"
        ],
        "00843788041915": [
            3300,
            3300,
            "MONTHLY",
            "EPAY",
            "ULTRA"
        ],
        "00843788041922": [
            3800,
            3800,
            "MONTHLY",
            "EPAY",
            "ULTRA"
        ],
        "00843788041939": [
            4300,
            4300,
            "MONTHLY",
            "EPAY",
            "ULTRA"
        ],
        "00843788026257": [
            250,
            1000,
            "WALLET",
            "EPAY",
            "ULTRA"
        ],
        "00843788026370": [
            250,
            1000,
            "WALLET",
            "EPAY",
            "ULTRA"
        ],
        "00843788026264": [
            1001,
            10000,
            "WALLET",
            "EPAY",
            "ULTRA"
        ],
        "00843788026387": [
            1001,
            10000,
            "WALLET",
            "EPAY",
            "ULTRA"
        ],
        "00843788039486": [
            1900,
            1900,
            "MONTHLY",
            "EPAY",
            "UNIVISION"
        ],
        "00843788035471": [
            2000,
            2000,
            "MONTHLY",
            "EPAY",
            "UNIVISION"
        ],
        "00843788039493": [
            2400,
            2400,
            "MONTHLY",
            "EPAY",
            "UNIVISION"
        ],
        "00843788035488": [
            2500,
            2500,
            "MONTHLY",
            "EPAY",
            "UNIVISION"
        ],
        "00843788039509": [
            2900,
            2900,
            "MONTHLY",
            "EPAY",
            "UNIVISION"
        ],
        "00843788035495": [
            3000,
            3000,
            "MONTHLY",
            "EPAY",
            "UNIVISION"
        ],
        "00843788039516": [
            3400,
            3400,
            "MONTHLY",
            "EPAY",
            "UNIVISION"
        ],
        "00843788035501": [
            3500,
            3500,
            "MONTHLY",
            "EPAY",
            "UNIVISION"
        ],
        "00843788039523": [
            3900,
            3900,
            "MONTHLY",
            "EPAY",
            "UNIVISION"
        ],
        "00843788035518": [
            4000,
            4000,
            "MONTHLY",
            "EPAY",
            "UNIVISION"
        ],
        "00843788039530": [
            4400,
            4400,
            "MONTHLY",
            "EPAY",
            "UNIVISION"
        ],
        "00843788035525": [
            4500,
            4500,
            "MONTHLY",
            "EPAY",
            "UNIVISION"
        ],
        "00843788039561": [
            4900,
            4900,
            "MONTHLY",
            "EPAY",
            "UNIVISION"
        ],
        "00843788035532": [
            5000,
            5000,
            "MONTHLY",
            "EPAY",
            "UNIVISION"
        ],
        "00843788039547": [
            5400,
            5400,
            "MONTHLY",
            "EPAY",
            "UNIVISION"
        ],
        "00843788035549": [
            5500,
            5500,
            "MONTHLY",
            "EPAY",
            "UNIVISION"
        ],
        "00843788039554": [
            5900,
            5900,
            "MONTHLY",
            "EPAY",
            "UNIVISION"
        ],
        "00843788035556": [
            6000,
            6000,
            "MONTHLY",
            "EPAY",
            "UNIVISION"
        ],
        "00843788039578": [
            6400,
            6400,
            "MONTHLY",
            "EPAY",
            "UNIVISION"
        ],
        "00843788035563": [
            6500,
            6500,
            "MONTHLY",
            "EPAY",
            "UNIVISION"
        ],
        "00843788039585": [
            6900,
            6900,
            "MONTHLY",
            "EPAY",
            "UNIVISION"
        ],
        "00843788035570": [
            7000,
            7000,
            "MONTHLY",
            "EPAY",
            "UNIVISION"
        ],
        "00843788039592": [
            7400,
            7400,
            "MONTHLY",
            "EPAY",
            "UNIVISION"
        ],
        "00843788035587": [
            7500,
            7500,
            "MONTHLY",
            "EPAY",
            "UNIVISION"
        ],
        "00843788039608": [
            7900,
            7900,
            "MONTHLY",
            "EPAY",
            "UNIVISION"
        ],
        "00843788035594": [
            8000,
            8000,
            "MONTHLY",
            "EPAY",
            "UNIVISION"
        ],
        "00843788039615": [
            8400,
            8400,
            "MONTHLY",
            "EPAY",
            "UNIVISION"
        ],
        "00843788035600": [
            8500,
            8500,
            "MONTHLY",
            "EPAY",
            "UNIVISION"
        ],
        "00843788039622": [
            8900,
            8900,
            "MONTHLY",
            "EPAY",
            "UNIVISION"
        ],
        "00843788035617": [
            9000,
            9000,
            "MONTHLY",
            "EPAY",
            "UNIVISION"
        ],
        "00843788039639": [
            9400,
            9400,
            "MONTHLY",
            "EPAY",
            "UNIVISION"
        ],
        "00843788035624": [
            9500,
            9500,
            "MONTHLY",
            "EPAY",
            "UNIVISION"
        ],
        "00843788039646": [
            9900,
            9900,
            "MONTHLY",
            "EPAY",
            "UNIVISION"
        ],
        "00843788035631": [
            250,
            1000,
            "WALLET",
            "EPAY",
            "UNIVISION"
        ],
        "00843788035648": [
            1001,
            10000,
            "WALLET",
            "EPAY",
            "UNIVISION"
        ]
    },
    "INCOMM": {
        "799366321118": [
            1900,
            1900,
            "MONTHLY",
            "QPAY",
            "ULTRA"
        ],
        "799366329367": [
            2400,
            2400,
            "MONTHLY",
            "QPAY",
            "ULTRA"
        ],
        "799366321125": [
            2900,
            2900,
            "MONTHLY",
            "QPAY",
            "ULTRA"
        ],
        "799366329374": [
            3400,
            3400,
            "MONTHLY",
            "QPAY",
            "ULTRA"
        ],
        "799366321132": [
            3900,
            3900,
            "MONTHLY",
            "QPAY",
            "ULTRA"
        ],
        "799366329381": [
            4400,
            4400,
            "MONTHLY",
            "QPAY",
            "ULTRA"
        ],
        "799366321149": [
            4900,
            4900,
            "MONTHLY",
            "QPAY",
            "ULTRA"
        ],
        "799366329398": [
            5400,
            5400,
            "MONTHLY",
            "QPAY",
            "ULTRA"
        ],
        "799366321156": [
            5900,
            5900,
            "MONTHLY",
            "QPAY",
            "ULTRA"
        ],
        "799366329404": [
            6400,
            6400,
            "MONTHLY",
            "QPAY",
            "ULTRA"
        ],
        "799366329411": [
            6900,
            6900,
            "MONTHLY",
            "QPAY",
            "ULTRA"
        ],
        "799366329428": [
            7400,
            7400,
            "MONTHLY",
            "QPAY",
            "ULTRA"
        ],
        "799366329435": [
            7900,
            7900,
            "MONTHLY",
            "QPAY",
            "ULTRA"
        ],
        "799366329442": [
            8400,
            8400,
            "MONTHLY",
            "QPAY",
            "ULTRA"
        ],
        "799366329473": [
            8900,
            8900,
            "MONTHLY",
            "QPAY",
            "ULTRA"
        ],
        "799366329480": [
            9900,
            9900,
            "MONTHLY",
            "QPAY",
            "ULTRA"
        ],
        "799366329497": [
            250,
            10000,
            "WALLET",
            "QPAY",
            "ULTRA"
        ],
        "799366219651": [
            250,
            10000,
            "SMART",
            "QPAY",
            "ULTRA"
        ],
        "799366270560": [
            250,
            10000,
            "SMART",
            "INCOMM",
            "ULTRA"
        ]
    },
    "IAS": {
        "201474": [
            5700,
            5700,
            "MONTHLY",
            "QPAY",
            "ULTRA"
        ],
        "201475": [
            8700,
            8700,
            "MONTHLY",
            "QPAY",
            "ULTRA"
        ],
        "201476": [
            11700,
            11700,
            "MONTHLY",
            "QPAY",
            "ULTRA"
        ],
        "201477": [
            14700,
            14700,
            "MONTHLY",
            "QPAY",
            "ULTRA"
        ],
        "200709": [
            1900,
            1900,
            "MONTHLY",
            "QPAY",
            "ULTRA"
        ],
        "200710": [
            2400,
            2400,
            "MONTHLY",
            "QPAY",
            "ULTRA"
        ],
        "200711": [
            2900,
            2900,
            "MONTHLY",
            "QPAY",
            "ULTRA"
        ],
        "200712": [
            3400,
            3400,
            "MONTHLY",
            "QPAY",
            "ULTRA"
        ],
        "200713": [
            3900,
            3900,
            "MONTHLY",
            "QPAY",
            "ULTRA"
        ],
        "200714": [
            4400,
            4400,
            "MONTHLY",
            "QPAY",
            "ULTRA"
        ],
        "201025": [
            4500,
            4500,
            "MONTHLY",
            "QPAY",
            "ULTRA"
        ],
        "200715": [
            4900,
            4900,
            "MONTHLY",
            "QPAY",
            "ULTRA"
        ],
        "201026": [
            5000,
            5000,
            "MONTHLY",
            "QPAY",
            "ULTRA"
        ],
        "200716": [
            5400,
            5400,
            "MONTHLY",
            "QPAY",
            "ULTRA"
        ],
        "201027": [
            5500,
            5500,
            "MONTHLY",
            "QPAY",
            "ULTRA"
        ],
        "200717": [
            5900,
            5900,
            "MONTHLY",
            "QPAY",
            "ULTRA"
        ],
        "201028": [
            6000,
            6000,
            "MONTHLY",
            "QPAY",
            "ULTRA"
        ],
        "200718": [
            6400,
            6400,
            "MONTHLY",
            "QPAY",
            "ULTRA"
        ],
        "201029": [
            6500,
            6500,
            "MONTHLY",
            "QPAY",
            "ULTRA"
        ],
        "200719": [
            6900,
            6900,
            "MONTHLY",
            "QPAY",
            "ULTRA"
        ],
        "201030": [
            7000,
            7000,
            "MONTHLY",
            "QPAY",
            "ULTRA"
        ],
        "200720": [
            7400,
            7400,
            "MONTHLY",
            "QPAY",
            "ULTRA"
        ],
        "201031": [
            7500,
            7500,
            "MONTHLY",
            "QPAY",
            "ULTRA"
        ],
        "200721": [
            7900,
            7900,
            "MONTHLY",
            "QPAY",
            "ULTRA"
        ],
        "201032": [
            8000,
            8000,
            "MONTHLY",
            "QPAY",
            "ULTRA"
        ],
        "200722": [
            8400,
            8400,
            "MONTHLY",
            "QPAY",
            "ULTRA"
        ],
        "201033": [
            8500,
            8500,
            "MONTHLY",
            "QPAY",
            "ULTRA"
        ],
        "200723": [
            8900,
            8900,
            "MONTHLY",
            "QPAY",
            "ULTRA"
        ],
        "201034": [
            9400,
            9400,
            "MONTHLY",
            "QPAY",
            "ULTRA"
        ],
        "200724": [
            9900,
            9900,
            "MONTHLY",
            "QPAY",
            "ULTRA"
        ],
        "201385": [
            2300,
            2300,
            "MONTHLY",
            "QPAY",
            "ULTRA"
        ],
        "201386": [
            2800,
            2800,
            "MONTHLY",
            "QPAY",
            "ULTRA"
        ],
        "201387": [
            3300,
            3300,
            "MONTHLY",
            "QPAY",
            "ULTRA"
        ],
        "201388": [
            3800,
            3800,
            "MONTHLY",
            "QPAY",
            "ULTRA"
        ],
        "201389": [
            4300,
            4300,
            "MONTHLY",
            "QPAY",
            "ULTRA"
        ],
        "200725": [
            250,
            10000,
            "WALLET",
            "QPAY",
            "ULTRA"
        ],
        "201035": [
            1900,
            1900,
            "MONTHLY",
            "QPAY",
            "UNIVISION"
        ],
        "200726": [
            2000,
            2000,
            "MONTHLY",
            "QPAY",
            "UNIVISION"
        ],
        "201036": [
            2400,
            2400,
            "MONTHLY",
            "QPAY",
            "UNIVISION"
        ],
        "200727": [
            2500,
            2500,
            "MONTHLY",
            "QPAY",
            "UNIVISION"
        ],
        "201037": [
            2900,
            2900,
            "MONTHLY",
            "QPAY",
            "UNIVISION"
        ],
        "200728": [
            3000,
            3000,
            "MONTHLY",
            "QPAY",
            "UNIVISION"
        ],
        "201038": [
            3400,
            3400,
            "MONTHLY",
            "QPAY",
            "UNIVISION"
        ],
        "200729": [
            3500,
            3500,
            "MONTHLY",
            "QPAY",
            "UNIVISION"
        ],
        "201039": [
            3900,
            3900,
            "MONTHLY",
            "QPAY",
            "UNIVISION"
        ],
        "200730": [
            4000,
            4000,
            "MONTHLY",
            "QPAY",
            "UNIVISION"
        ],
        "201040": [
            4400,
            4400,
            "MONTHLY",
            "QPAY",
            "UNIVISION"
        ],
        "200731": [
            4500,
            4500,
            "MONTHLY",
            "QPAY",
            "UNIVISION"
        ],
        "201043": [
            4900,
            4900,
            "MONTHLY",
            "QPAY",
            "UNIVISION"
        ],
        "200732": [
            5000,
            5000,
            "MONTHLY",
            "QPAY",
            "UNIVISION"
        ],
        "201041": [
            5400,
            5400,
            "MONTHLY",
            "QPAY",
            "UNIVISION"
        ],
        "200733": [
            5500,
            5500,
            "MONTHLY",
            "QPAY",
            "UNIVISION"
        ],
        "201042": [
            5900,
            5900,
            "MONTHLY",
            "QPAY",
            "UNIVISION"
        ],
        "200734": [
            6000,
            6000,
            "MONTHLY",
            "QPAY",
            "UNIVISION"
        ],
        "201044": [
            6400,
            6400,
            "MONTHLY",
            "QPAY",
            "UNIVISION"
        ],
        "200735": [
            6500,
            6500,
            "MONTHLY",
            "QPAY",
            "UNIVISION"
        ],
        "201045": [
            6900,
            6900,
            "MONTHLY",
            "QPAY",
            "UNIVISION"
        ],
        "200736": [
            7000,
            7000,
            "MONTHLY",
            "QPAY",
            "UNIVISION"
        ],
        "201046": [
            7400,
            7400,
            "MONTHLY",
            "QPAY",
            "UNIVISION"
        ],
        "200737": [
            7500,
            7500,
            "MONTHLY",
            "QPAY",
            "UNIVISION"
        ],
        "201047": [
            7900,
            7900,
            "MONTHLY",
            "QPAY",
            "UNIVISION"
        ],
        "200738": [
            8000,
            8000,
            "MONTHLY",
            "QPAY",
            "UNIVISION"
        ],
        "201048": [
            8400,
            8400,
            "MONTHLY",
            "QPAY",
            "UNIVISION"
        ],
        "200739": [
            8500,
            8500,
            "MONTHLY",
            "QPAY",
            "UNIVISION"
        ],
        "201049": [
            8900,
            8900,
            "MONTHLY",
            "QPAY",
            "UNIVISION"
        ],
        "200740": [
            9000,
            9000,
            "MONTHLY",
            "QPAY",
            "UNIVISION"
        ],
        "201050": [
            9400,
            9400,
            "MONTHLY",
            "QPAY",
            "UNIVISION"
        ],
        "201051": [
            9900,
            9900,
            "MONTHLY",
            "QPAY",
            "UNIVISION"
        ],
        "200742": [
            250,
            10000,
            "WALLET",
            "QPAY",
            "UNIVISION"
        ]
    },
    "TCETRA": {
        "8389": [
            5700,
            5700,
            "MONTHLY",
            "TCETRA",
            "ULTRA"
        ],
        "8390": [
            8700,
            8700,
            "MONTHLY",
            "TCETRA",
            "ULTRA"
        ],
        "8391": [
            11700,
            11700,
            "MONTHLY",
            "TCETRA",
            "ULTRA"
        ],
        "8392": [
            14700,
            14700,
            "MONTHLY",
            "TCETRA",
            "ULTRA"
        ],
        "1806": [
            1900,
            1900,
            "MONTHLY",
            "TCETRA",
            "ULTRA"
        ],
        "4757": [
            2400,
            2400,
            "MONTHLY",
            "TCETRA",
            "ULTRA"
        ],
        "1559": [
            2900,
            2900,
            "MONTHLY",
            "TCETRA",
            "ULTRA"
        ],
        "4758": [
            3400,
            3400,
            "MONTHLY",
            "TCETRA",
            "ULTRA"
        ],
        "1564": [
            3900,
            3900,
            "MONTHLY",
            "TCETRA",
            "ULTRA"
        ],
        "4759": [
            4400,
            4400,
            "MONTHLY",
            "TCETRA",
            "ULTRA"
        ],
        "7144": [
            4500,
            4500,
            "MONTHLY",
            "TCETRA",
            "ULTRA"
        ],
        "1565": [
            4900,
            4900,
            "MONTHLY",
            "TCETRA",
            "ULTRA"
        ],
        "7546": [
            5000,
            5000,
            "MONTHLY",
            "TCETRA",
            "ULTRA"
        ],
        "4760": [
            5400,
            5400,
            "MONTHLY",
            "TCETRA",
            "ULTRA"
        ],
        "7544": [
            5500,
            5500,
            "MONTHLY",
            "TCETRA",
            "ULTRA"
        ],
        "1779": [
            5900,
            5900,
            "MONTHLY",
            "TCETRA",
            "ULTRA"
        ],
        "7548": [
            6000,
            6000,
            "MONTHLY",
            "TCETRA",
            "ULTRA"
        ],
        "4761": [
            6400,
            6400,
            "MONTHLY",
            "TCETRA",
            "ULTRA"
        ],
        "7550": [
            6500,
            6500,
            "MONTHLY",
            "TCETRA",
            "ULTRA"
        ],
        "4762": [
            6900,
            6900,
            "MONTHLY",
            "TCETRA",
            "ULTRA"
        ],
        "7560": [
            7000,
            7000,
            "MONTHLY",
            "TCETRA",
            "ULTRA"
        ],
        "4763": [
            7400,
            7400,
            "MONTHLY",
            "TCETRA",
            "ULTRA"
        ],
        "7562": [
            7500,
            7500,
            "MONTHLY",
            "TCETRA",
            "ULTRA"
        ],
        "4764": [
            7900,
            7900,
            "MONTHLY",
            "TCETRA",
            "ULTRA"
        ],
        "7564": [
            8000,
            8000,
            "MONTHLY",
            "TCETRA",
            "ULTRA"
        ],
        "4765": [
            8400,
            8400,
            "MONTHLY",
            "TCETRA",
            "ULTRA"
        ],
        "7566": [
            8500,
            8500,
            "MONTHLY",
            "TCETRA",
            "ULTRA"
        ],
        "4766": [
            8900,
            8900,
            "MONTHLY",
            "TCETRA",
            "ULTRA"
        ],
        "7568": [
            9000,
            9000,
            "MONTHLY",
            "TCETRA",
            "ULTRA"
        ],
        "6714": [
            9500,
            9500,
            "MONTHLY",
            "TCETRA",
            "ULTRA"
        ],
        "4767": [
            9900,
            9900,
            "MONTHLY",
            "TCETRA",
            "ULTRA"
        ],
        "3970": [
            250,
            1000,
            "WALLET",
            "TCETRA",
            "ULTRA"
        ],
        "1916": [
            1001,
            10000,
            "WALLET",
            "TCETRA",
            "ULTRA"
        ],
        "8215": [
            2300,
            2300,
            "MONTHLY",
            "TCETRA",
            "ULTRA"
        ],
        "8220": [
            2800,
            2800,
            "MONTHLY",
            "TCETRA",
            "ULTRA"
        ],
        "8224": [
            3300,
            3300,
            "MONTHLY",
            "TCETRA",
            "ULTRA"
        ],
        "8228": [
            3800,
            3800,
            "MONTHLY",
            "TCETRA",
            "ULTRA"
        ],
        "8232": [
            4300,
            4300,
            "MONTHLY",
            "TCETRA",
            "ULTRA"
        ],
        "7125": [
            1900,
            1900,
            "MONTHLY",
            "TCETRA",
            "UNIVISION"
        ],
        "6598": [
            2000,
            2000,
            "MONTHLY",
            "TCETRA",
            "UNIVISION"
        ],
        "7127": [
            2400,
            2400,
            "MONTHLY",
            "TCETRA",
            "UNIVISION"
        ],
        "6599": [
            2500,
            2500,
            "MONTHLY",
            "TCETRA",
            "UNIVISION"
        ],
        "7130": [
            2900,
            2900,
            "MONTHLY",
            "TCETRA",
            "UNIVISION"
        ],
        "6600": [
            3000,
            3000,
            "MONTHLY",
            "TCETRA",
            "UNIVISION"
        ],
        "7132": [
            3400,
            3400,
            "MONTHLY",
            "TCETRA",
            "UNIVISION"
        ],
        "6601": [
            3500,
            3500,
            "MONTHLY",
            "TCETRA",
            "UNIVISION"
        ],
        "7134": [
            3900,
            3900,
            "MONTHLY",
            "TCETRA",
            "UNIVISION"
        ],
        "6602": [
            4000,
            4000,
            "MONTHLY",
            "TCETRA",
            "UNIVISION"
        ],
        "7136": [
            4400,
            4400,
            "MONTHLY",
            "TCETRA",
            "UNIVISION"
        ],
        "6603": [
            4500,
            4500,
            "MONTHLY",
            "TCETRA",
            "UNIVISION"
        ],
        "7194": [
            4900,
            4900,
            "MONTHLY",
            "TCETRA",
            "UNIVISION"
        ],
        "6604": [
            5000,
            5000,
            "MONTHLY",
            "TCETRA",
            "UNIVISION"
        ],
        "7140": [
            5400,
            5400,
            "MONTHLY",
            "TCETRA",
            "UNIVISION"
        ],
        "6605": [
            5500,
            5500,
            "MONTHLY",
            "TCETRA",
            "UNIVISION"
        ],
        "7142": [
            5900,
            5900,
            "MONTHLY",
            "TCETRA",
            "UNIVISION"
        ],
        "6606": [
            6000,
            6000,
            "MONTHLY",
            "TCETRA",
            "UNIVISION"
        ],
        "7195": [
            6400,
            6400,
            "MONTHLY",
            "TCETRA",
            "UNIVISION"
        ],
        "6607": [
            6500,
            6500,
            "MONTHLY",
            "TCETRA",
            "UNIVISION"
        ],
        "7196": [
            6900,
            6900,
            "MONTHLY",
            "TCETRA",
            "UNIVISION"
        ],
        "6609": [
            7000,
            7000,
            "MONTHLY",
            "TCETRA",
            "UNIVISION"
        ],
        "7197": [
            7400,
            7400,
            "MONTHLY",
            "TCETRA",
            "UNIVISION"
        ],
        "6610": [
            7500,
            7500,
            "MONTHLY",
            "TCETRA",
            "UNIVISION"
        ],
        "7198": [
            7900,
            7900,
            "MONTHLY",
            "TCETRA",
            "UNIVISION"
        ],
        "6611": [
            8000,
            8000,
            "MONTHLY",
            "TCETRA",
            "UNIVISION"
        ],
        "7199": [
            8400,
            8400,
            "MONTHLY",
            "TCETRA",
            "UNIVISION"
        ],
        "6712": [
            8500,
            8500,
            "MONTHLY",
            "TCETRA",
            "UNIVISION"
        ],
        "7200": [
            8900,
            8900,
            "MONTHLY",
            "TCETRA",
            "UNIVISION"
        ],
        "6612": [
            9000,
            9000,
            "MONTHLY",
            "TCETRA",
            "UNIVISION"
        ],
        "6713": [
            9500,
            9500,
            "MONTHLY",
            "TCETRA",
            "UNIVISION"
        ],
        "6613": [
            300,
            1000,
            "WALLET",
            "TCETRA",
            "UNIVISION"
        ],
        "6614": [
            1001,
            10000,
            "WALLET",
            "TCETRA",
            "UNIVISION"
        ]
    }
}

