{
  "states" :
  {
    "Neutral" :
    {
      "depart"  : [],
      "arrival" : []
    },
    "Active" :
    {
      "depart"  : [],
      "arrival" : [
        "activeMaybeSetActivationDateTime",
        "sendActivationEmail"
      ]
    },
    "Suspended" :
    {
      "depart"  : [],
      "arrival" : []
    },
    "Cancelled" :
    {
      "depart"  : [],
      "arrival" : [
        "logCancellationTransitionInActivationHistory",
        "disableAccount",
        "nullifySimAndMsisdn"
      ]
    },
    "Provisioned" :
    {
      "depart"  : [],
      "arrival" : []
    },
    "Port-In Requested" :
    {
      "depart"  : [],
      "arrival" : []
    },
    "Port-In Denied" :
    {
      "depart"  : [],
      "arrival" : []
    },
    "Pre-Funded" :
    {
      "depart"  : [],
      "arrival" : []
    },
    "Promo Unused" :
    {
      "depart"  : [],
      "arrival" : []
    }
  },
  "plan_groups": {
    "all":         ["UV20","UV30","UV35","UV45","UV50","UV55","UVS19","UVS24","UVS29","UVS34","UVS39","UVS44","UVS45","UVS54"],
    "provision":   ["UVS19","UVS24","UVS29","UVS34","UVS39","UVS44","UVS45","UVS54"],
    "dealer_demo": ["UVS45"]
  },

  "transitions":
[
  {
    "allowed":    "all",
    "label":      "Orange Sim Activation [to_plan]",
    "from_state": "Neutral",
    "to_state":   "Active",
    "priority":   "1",
    "from_plan":  "STANDBY",
    "connection": "speaker",
    "requirements": [
      "checkWholeValueMin?value:[to_cost]"
    ],
    "actions": [
        "validateOrangeSim",
        "multiMonthEnrollment",
        "logNewActivationInActivationHistory",
        "setGrossAddDate",
        "logTransitionInActivationHistory",
        "mvneActivateSIM",
        "sleep",
        "sweepStoredValueExplicit",
        "spendFromBalanceExplicit",
        "setPlanStarted",
        "initialActivePlanExpires",
        "logPlanStartedInActivationHistory",
        "sleep",
        "httPlanTrackerFirstActivation",
        "simActivationHandler",
        "msisdnActivationHandler",
        "setMinutes",
        "sendExemptCustomerSMSActivationNewPhone",
        "sendExemptCustomerSMSActivateHelp",
        "sendExemptCustomerSMSActivatePlanInfo",
        "sendExemptCustomerSMSActivateDataHelp",
        "onlineAutoEnroll",
        "resetZeroMinutes",
        "setDefaultThrottleSpeed"
    ]
  },
  
  {
    "allowed":    "provision",
    "label":      "Activate Intra Port [to_plan]",
    "from_state": "Neutral",
    "to_state":   "Active",
    "priority":   "1",
    "from_plan":  "STANDBY",
    "connection": "speaker",
    "requirements": [
      "checkWholeValueMin?value:[to_cost]"
    ],
    "actions": [
        "logPortTransitionInActivationHistory",
        "logTransitionInActivationHistory",
        "mvneIntraPort",
        "resetZeroMinutes",
        "setGrossAddDate",
        "sweepStoredValueExplicit",
        "spendFromBalanceExplicit",
        "setPlanStarted",
        "initialActivePlanExpires",
        "logPlanStartedInActivationHistory",
        "sleep",
        "httPlanTrackerFirstActivation",
        "simActivationHandler",
        "msisdnActivationHandler",
        "setMinutes",
        "sendExemptCustomerSMSPortSuccess",
        "sendExemptCustomerSMSActivateHelp",
        "sendExemptCustomerSMSActivatePlanInfo",
        "sendExemptCustomerSMSActivateDataHelp",
        "onlineAutoEnroll",
        "processRecurringBoltOns",
        "sendPortInSuccessEmail",
        "setDefaultThrottleSpeed"
    ]
  },
  
  {
    "allowed":    "all",
    "label":      "Port Activated",
    "from_state": "Port-In Requested",
    "to_state":   "Active",
    "priority":   "3",
    "connection": "self",
    "requirements": [
      "checkWholeValueMin?value:[to_cost]"
    ],
    "actions": [
        "logTransitionInActivationHistory",
        "setGrossAddDate",
        "sweepStoredValueExplicit",
        "spendFromBalanceExplicit",
        "setPlanStarted",
        "initialActivePlanExpires",
        "logPlanStartedInActivationHistory",
        "sleep",
        "httPlanTrackerFirstActivation",
        "simActivationHandler",
        "msisdnActivationHandler",
        "setMinutes",
        "sendExemptCustomerSMSPortSuccess",
        "sendExemptCustomerSMSActivateHelp",
        "sendExemptCustomerSMSActivatePlanInfo",
        "sendExemptCustomerSMSActivateDataHelp",
        "mvneMakeitsoRenewPlan",
        "sendPortInSuccessEmail",
        "processRecurringBoltOns",
        "multiMonthEnrollment",
        "onlineAutoEnroll",
        "portAddToHttUltraMsisdn",
        "resetZeroMinutes",
        "setDefaultThrottleSpeed"
    ]
  },
  
  {
    "allowed":    "all",
    "label":      "Request Port [to_plan]",
    "from_state": "Neutral",
    "to_state":   "Port-In Requested",
    "priority":   "1",
    "from_plan":  "STANDBY",
    "connection": "speaker",
    "requirements": [
      "checkCredentialFalse?value:ultra/disable/porting"
    ],
    "actions": [
        "logPortTransitionInActivationHistory",
        "mvneRequestPortIn"
    ]
  },
  
  {
    "allowed":    "all",
    "label":      "Promo Prepare [to_plan]",
    "from_state": "Neutral",
    "to_state":   "Promo Unused",
    "priority":   "7",
    "from_plan":  "STANDBY",
    "connection": "speaker",
    "requirements": [
      
    ],
    "actions": [
        "logTransitionInActivationHistory",
        "logNewActivationInActivationHistory",
        "mvneActivateSIM",
        "sleep",
        "delayedProvisioningSuspend",
        "simActivationHandler",
        "msisdnActivationHandler"
    ]
  },
  
  {
    "allowed":    "all",
    "label":      "SIM Received Request Port",
    "from_state": "Pre-Funded",
    "to_state":   "Port-In Requested",
    "priority":   "1",
    "connection": "self",
    "requirements": [
      "checkCredentialFalse?value:ultra/disable/porting",
      "checkWholeValueMin?value:[to_cost]"
    ],
    "actions": [
        "logPortTransitionInActivationHistory",
        "logPortIccidInActivationHistory",
        "mvneRequestPortIn"
    ]
  },
  
  {
    "allowed":    "provision",
    "label":      "Provision [to_plan]",
    "from_state": "Neutral",
    "to_state":   "Provisioned",
    "priority":   "1",
    "from_plan":  "STANDBY",
    "connection": "speaker",
    "requirements": [
      
    ],
    "actions": [
        "logTransitionInActivationHistory",
        "logNewActivationInActivationHistory",
        "mvneProvisionSIM",
        "sleep",
        "delayedProvisioningSuspend",
        "simActivationHandler",
        "msisdnActivationHandler",
        "sendExemptCustomerSMSProvisionedReminder",
        "sendExemptCustomerSMSActivationNewPhone"
    ]
  },
  
  {
    "allowed":    "all",
    "label":      "Pre-Fund SIM [to_plan]",
    "from_state": "Neutral",
    "to_state":   "Pre-Funded",
    "priority":   "1",
    "from_plan":  "STANDBY",
    "connection": "speaker",
    "requirements": [
      "checkWholeValueMin?value:[to_cost]"
    ],
    "actions": [
        "logTransitionInActivationHistory"
    ]
  },
  
  {
    "allowed":    "all",
    "label":      "Ship Ordered SIM [to_plan]",
    "from_state": "Neutral",
    "to_state":   "Pre-Funded",
    "priority":   "1",
    "from_plan":  "STANDBY",
    "connection": "speaker",
    "requirements": [
      "checkShippingAddress?value:true",
      "checkWholeValueMin?value:[to_cost]"
    ],
    "actions": [
      "logTransitionInActivationHistory",
      "inventoryIndividualShipSIM"
    ]
  },
  
  {
    "allowed":    "all",
    "label":      "Activate Shipped SIM",
    "from_state": "Pre-Funded",
    "to_state":   "Active",
    "priority":   "1",
    "connection": "self",
    "requirements": [
      
    ],
    "actions": [
        "logTransitionInActivationHistory",
        "mvneActivateSIM",
        "sleep",
        "sweepStoredValueExplicit",
        "spendFromBalanceExplicit",
        "setPlanStarted",
        "initialActivePlanExpires",
        "logPlanStartedInActivationHistory",
        "sleep",
        "httPlanTrackerFirstActivation",
        "simActivationHandler",
        "msisdnActivationHandler",
        "setMinutes",
        "sendExemptCustomerSMSActivationNewPhone",
        "sendExemptCustomerSMSActivateHelp",
        "sendExemptCustomerSMSActivatePlanInfo",
        "sendExemptCustomerSMSActivateDataHelp",
        "onlineAutoEnroll",
        "resetZeroMinutes",
        "processRecurringBoltOns",
        "setGrossAddDate",
        "logNewIccidInActivationHistory",
        "setDefaultThrottleSpeed"
    ]
  },
  
  {
    "allowed":    "all",
    "label":      "Activate [to_plan]",
    "from_state": "Neutral",
    "to_state":   "Active",
    "priority":   "1",
    "from_plan":  "STANDBY",
    "connection": "speaker",
    "requirements": [
      "checkWholeValueMin?value:[to_cost]"
    ],
    "actions": [
        "logTransitionInActivationHistory",
        "mvneActivateSIM",
        "sleep",
        "sweepStoredValueExplicit",
        "spendFromBalanceExplicit",
        "setPlanStarted",
        "initialActivePlanExpires",
        "logPlanStartedInActivationHistory",
        "sleep",
        "httPlanTrackerFirstActivation",
        "simActivationHandler",
        "msisdnActivationHandler",
        "setMinutes",
        "multiMonthOverlayEnrollment",
        "sendExemptCustomerSMSActivationNewPhone",
        "sendExemptCustomerSMSActivateHelp",
        "sendExemptCustomerSMSActivatePlanInfo",
        "sendExemptCustomerSMSActivateDataHelp",
        "onlineAutoEnroll",
        "resetZeroMinutes",
        "processRecurringBoltOns",
        "setGrossAddDate",
        "setDefaultThrottleSpeed"
    ]
  },
  
  {
    "allowed":    "dealer_demo",
    "label":      "Activate Dealer Demo [to_plan]",
    "from_state": "Neutral",
    "to_state":   "Active",
    "priority":   "1",
    "from_plan":  "STANDBY",
    "connection": "speaker",
    "requirements": [
      "checkWholeValueMin?value:[to_cost]"
    ],
    "actions": [
        "logTransitionInActivationHistory",
        "mvneActivateSIM",
        "sleep",
        "sweepStoredValueExplicit",
        "spendFromBalanceExplicit",
        "setPlanStarted",
        "initialActivePlanExpires",
        "logPlanStartedInActivationHistory",
        "sleep",
        "httPlanTrackerFirstActivation",
        "simActivationHandler",
        "msisdnActivationHandler",
        "setMinutes",
        "sendExemptCustomerSMSActivationNewPhone",
        "sendExemptCustomerSMSActivateHelp",
        "sendExemptCustomerSMSActivatePlanInfo",
        "sendExemptCustomerSMSActivateDataHelp",
        "onlineAutoEnroll",
        "resetZeroMinutes",
        "setGrossAddDate",
        "finalizeDemoLineActivation",
        "setDefaultThrottleSpeed"
    ]
  },
  
  {
    "allowed":    "provision",
    "label":      "Provision Intra Port [to_plan]",
    "from_state": "Neutral",
    "to_state":   "Provisioned",
    "priority":   "1",
    "from_plan":  "STANDBY",
    "connection": "speaker",
    "requirements": [
      
    ],
    "actions": [
        "logPortTransitionInActivationHistory",
        "logTransitionInActivationHistory",
        "mvneIntraPort",
        "simActivationHandler",
        "msisdnActivationHandler",
        "sendExemptCustomerSMSProvisionedReminder",
        "sendExemptCustomerSMSPortSuccess"
    ]
  },
  
  {
    "allowed":    "provision",
    "label":      "Port Provisioned",
    "from_state": "Port-In Requested",
    "to_state":   "Provisioned",
    "priority":   "3",
    "connection": "self",
    "requirements": [
      
    ],
    "actions": [
        "delayedProvisioningSuspend",
        "simActivationHandler",
        "msisdnActivationHandler",
        "sendExemptCustomerSMSProvisionedReminder",
        "sendExemptCustomerSMSPortSuccess",
        "portAddToHttUltraMsisdn"
    ]
  },
  
  {
    "allowed":    "provision",
    "label":      "Activate Provisioned [to_plan]",
    "from_state": "Provisioned",
    "to_state":   "Active",
    "priority":   "1",
    "connection": "self",
    "requirements": [
      "checkWholeValueMin?value:[to_cost]"
    ],
    "actions": [
        "logTransitionInActivationHistory",
        "sweepStoredValueExplicit",
        "spendFromBalanceExplicit",
        "mvneMakeitsoRenewPlan",
        "setPlanStarted",
        "initialActivePlanExpires",
        "resetZeroMinutes",
        "logPlanStartedInActivationHistory",
        "setGrossAddDate",
        "sleep",
        "httPlanTrackerFirstActivation",
        "bogoEnrollment",
        "setMinutes",
        "sendExemptCustomerSMSActivateHelp",
        "sendExemptCustomerSMSActivatePlanInfo",
        "sendExemptCustomerSMSActivateDataHelp",
        "processRecurringBoltOns",
        "setDefaultThrottleSpeed"
    ]
  },
  
  {
    "allowed":    "all",
    "label":      "Can Not Port",
    "from_state": "Port-In Requested",
    "to_state":   "Port-In Denied",
    "priority":   "4",
    "connection": "self",
    "requirements": [
      
    ],
    "actions": [
      "logTransitionInActivationHistory",
      "refundWebPosCustomer",
      "sendPortInFailureEmail"
    ]
  },
  
  {
    "allowed":    "all",
    "label":      "Retry Port",
    "from_state": "Port-In Denied",
    "to_state":   "Port-In Requested",
    "priority":   "1",
    "connection": "self",
    "requirements": [
      "checkCredentialFalse?value:ultra/disable/porting"
    ],
    "actions": [
      "logTransitionInActivationHistory"
    ]
  },
  
  {
    "allowed":    "all",
    "label":      "Cancel Unportable",
    "from_state": "Port-In Denied",
    "to_state":   "Cancelled",
    "priority":   "6",
    "to_plan":    "STANDBY",
    "connection": "tramp",
    "requirements": [
      
    ],
    "actions": [
      "mvneCancelPortIn"
    ]
  },
  
  {
    "label":      "Cancel Neutral",
    "from_state": "Neutral",
    "to_state":   "Cancelled",
    "priority":   "6",
    "from_plan":  "STANDBY",
    "to_plan":    "STANDBY",
    "connection": "one",
    "requirements": [
      
    ],
    "actions": [
      
    ]
  },
  
  {
    "allowed":    "all",
    "label":      "Re-ship Ordered SIM",
    "from_state": "Pre-Funded",
    "to_state":   "Pre-Funded",
    "priority":   "1",
    "connection": "self",
    "requirements": [
      "checkShippingAddress?value:true",
      "last_shipped_days_ago_min?value:7",
      "sim_shipments_max?value:2"
    ],
    "actions": [
      "logTransitionInActivationHistory",
      "inventoryIndividualShipSIM"
    ]
  },
  
  {
    "allowed":    "all",
    "label":      "Cancel Inactive",
    "from_state": "Provisioned",
    "to_state":   "Cancelled",
    "priority":   "6",
    "to_plan":    "STANDBY",
    "connection": "tramp",
    "requirements": [
      
    ],
    "actions": [
        "mvneEnsureCancel",
        "runDeactivateAccountStoredProcedure"
    ]
  },
  
  {
    "allowed":    "all",
    "label":      "Activate Promo [to_plan]",
    "from_state": "Promo Unused",
    "to_state":   "Active",
    "priority":   "1",
    "connection": "self",
    "requirements": [
      "checkWholeValueMin?value:[to_cost]"
    ],
    "actions": [
        "logTransitionInActivationHistory",
        "logNewActivationInActivationHistory",
        "sweepStoredValueExplicit",
        "spendFromBalanceExplicit",
        "mvneMakeitsoRenewPlan",
        "setPlanStarted",
        "initialActivePlanExpires",
        "resetZeroMinutes",
        "logPlanStartedInActivationHistory",
        "setGrossAddDate",
        "sleep",
        "httPlanTrackerFirstActivation",
        "setMinutes",
        "ultraPromotionalPlansPostActivation",
        "sendExemptCustomerSMSActivationNewPhone",
        "sendExemptCustomerSMSActivateHelp",
        "sendExemptCustomerSMSActivateDataHelp",
        "setDefaultThrottleSpeed"
    ]
  },
  
  {
    "allowed":    "all",
    "label":      "Cancel Promo",
    "from_state": "Promo Unused",
    "to_state":   "Cancelled",
    "priority":   "6",
    "to_plan":    "STANDBY",
    "connection": "tramp",
    "requirements": [
      
    ],
    "actions": [
      "mvneEnsureCancel",
      "runDeactivateAccountStoredProcedure"
    ]
  },
  
  {
    "allowed":    "all",
    "label":      "Suspend",
    "from_state": "Active",
    "to_state":   "Suspended",
    "priority":   "5",
    "connection": "self",
    "requirements": [
      
    ],
    "actions": [
        "sendExemptCustomerSMSDisabling",
        "mvneEnsureSuspend",
        "resetMonthlyRenewalTarget",
        "emptyMinutes"
    ]
  },
  
  {
    "allowed":    "all",
    "label":      "Monthly Renewal",
    "from_state": "Active",
    "to_state":   "Active",
    "priority":   "4",
    "connection": "self",
    "requirements": [
      "checkPlanRenewalDue?value:1",
      "checkWholeValueMin?value:[to_cost]"
    ],
    "actions": [
        "mvneMakeitsoRenewPlan",
        "checkMonthOverlay",
        "sweepStoredValueExplicit",
        "spendFromBalanceExplicit",
        "emptyMinutes",
        "setActivationDateTimeIfUnset",
        "setPlanStarted",
        "renewalActivePlanExpires",
        "resetZeroMinutes",
        "httPlanTrackerPlanRenewal",
        "setMinutes",
        "sendExemptCustomerSMSMonthlyPlanRenewal",
        "processRecurringBoltOns",
        "checkFinalMultiMonth",
        "migrateDefaultThrottleSpeed"
    ]
  },
  
  {
    "allowed":    "all",
    "label":      "Cancel Active",
    "from_state": "Active",
    "to_state":   "Cancelled",
    "priority":   "6",
    "to_plan":    "STANDBY",
    "connection": "tramp",
    "requirements": [
      
    ],
    "actions": [
      "mvneEnsureCancel",
      "runDeactivateAccountStoredProcedure"
    ]
  },
  
  {
    "allowed":    "all",
    "label":      "Cancel Active due to fraud",
    "from_state": "Active",
    "to_state":   "Cancelled",
    "priority":   "6",
    "to_plan":    "STANDBY",
    "connection": "tramp",
    "requirements": [
      
    ],
    "actions": [
      "mvneEnsureCancel",
      "runDeactivateAccountStoredProcedure"
    ]
  },
  
  {
    "allowed":    "all",
    "label":      "Intra brand cancellation [from_plan] Active",
    "from_state": "Active",
    "to_state":   "Cancelled",
    "priority":   "6",
    "to_plan":    "STANDBY",
    "connection": "tramp",
    "requirements": [
      
    ],
    "actions": [
      "runDeactivateAccountStoredProcedure"
    ]
  },
  
  {
    "allowed":    "all",
    "label":      "Intra brand cancellation [from_plan] Suspended",
    "from_state": "Suspended",
    "to_state":   "Cancelled",
    "priority":   "6",
    "to_plan":    "STANDBY",
    "connection": "tramp",
    "requirements": [
      
    ],
    "actions": [
      "runDeactivateAccountStoredProcedure"
    ]
  },
  
  {
    "allowed":    "all",
    "label":      "Reactivate from Suspend",
    "from_state": "Suspended",
    "to_state":   "Active",
    "priority":   "2",
    "connection": "self",
    "requirements": [
      "checkWholeValueMin?value:[to_cost]"
    ],
    "actions": [
        "sweepStoredValueExplicit",
        "spendFromBalanceExplicit",
        "mvneMakeitsoRenewPlan",
        "setPlanStarted",
        "renewalActivePlanExpires",
        "resetZeroMinutes",
        "setMinutes",
        "httPlanTrackerPlanRenewal",
        "sendExemptCustomerSMSUnsuspend",
        "processRecurringBoltOns"
    ]
  },
  
  {
    "allowed":    "all",
    "label":      "Cancel Suspended",
    "from_state": "Suspended",
    "to_state":   "Cancelled",
    "priority":   "6",
    "to_plan":    "STANDBY",
    "connection": "tramp",
    "requirements": [
      
    ],
    "actions": [
      "mvneEnsureCancel",
      "runDeactivateAccountStoredProcedure"
    ]
  },
  
  {
    "allowed":    "all",
    "label":      "Cancel Suspended due to fraud",
    "from_state": "Suspended",
    "to_state":   "Cancelled",
    "priority":   "6",
    "to_plan":    "STANDBY",
    "connection": "tramp",
    "requirements": [
      
    ],
    "actions": [
      "mvneEnsureCancel",
      "runDeactivateAccountStoredProcedure"
    ]
  },
  
  {
    "allowed_from": "all",
    "allowed_to":   "provision",
    "allowed":    "provision",
    "label":      "Suspended Change Plan [from_plan_short] to [to_plan_short]",
    "from_state": "Suspended",
    "to_state":   "Suspended",
    "priority":   "5",
    "connection": "rodeo",
    "requirements": [
      
    ],
    "actions": [
      "sendExemptCustomerSMSPlanSuspendedUpgraded"
    ]
  },
  
  {
    "allowed_from": "all",
    "allowed_to":   "all",
    "label":      "Monthly Renewal and Change Plan [from_plan_short] to [to_plan_short]",
    "from_state": "Active",
    "to_state":   "Active",
    "priority":   "4",
    "connection": "rodeo",
    "requirements": [
      "checkPlanRenewalDue?value:1",
      "checkWholeValueMin?value:[to_cost]"
    ],
    "actions": [
      "mvneMakeitsoRenewPlan",
      "sweepStoredValueExplicit",
      "spendFromBalanceExplicit",
      "setActivationDateTimeIfUnset",
      "setPlanStarted",
      "renewalActivePlanExpires",
      "resetZeroMinutes",
      "httPlanTrackerPlanRenewal",
      "resetMonthlyRenewalTarget",
      "setMinutes",
      "sendExemptCustomerSMSMonthlyPlanChange",
      "processRecurringBoltOns",
      "migrateDefaultThrottleSpeed"
    ]
  },
  
  {
    "allowed_from": "all",
    "allowed_to":   "provision",
    "label":      "Change Plan Mid-Cycle [from_plan_short] to [to_plan_short]",
    "from_state": "Active",
    "to_state":   "Active",
    "priority":   "2",
    "connection": "rodeo|high",
    "requirements": [
      "checkWholeValueMin?value:[diff_cost]"
    ],
    "actions": [
      "sweepStoredValueExplicit",
      "spendFromBalanceExplicit",
      "setDeltaMinutes",
      "resetMonthlyRenewalTarget",
      "httPlanTrackerPlanChange",
      "sendExemptCustomerSMSImmediatePlanChange",
      "mvneChangePlanImmediate"
    ]
  }
]
}
