{
  "meta": { "version": "1" },

  "security_meta": { "RBAC": "celluphone group" },

  "commands":
  {
      "inventory-partners-include.json": "include",
      "provisioning-partners-include.json": "include",
      "provisioning-public-include.json": "include",
      "customercare-partners-include.json": "include"
  }
}
