[
              {
                  "name": "startICCID",
                  "type": "string",
                  "required": true,
                  "validation": { "min_strlen": 18, "max_strlen": 18 },
                  "desc": "ICCID (first 18 digits) batch start"
              },
              {
                  "name": "endICCID",
                  "type": "string",
                  "required": true,
                  "validation": { "min_strlen": 18, "max_strlen": 18 },
                  "desc": "ICCID (first 18 digits) batch end"
              }
]
