{
  "meta": { "version": "1" },
  "security_meta": { "RBAC": "ePay group" },
  "brands": ["ULTRA"],

  "commands":
  {
    "ePay-partners-include.json": "include",
    "webpospayments.json": "include",
    "externalpayments__SubmitRealtimeReload":
    {
      "desc": "Allows external payment processors to apply a balance directly to a live account. ", 
      "parameters":
      [
        "common-parameters.json",
        "common-ePay-parameters.json",
        "common-ePay-storeID-parameters.json",
        {
          "name": "product_id",
          "desc": "Product (ULTRA_ADD_BALANCE or ULTRA_PLAN_RECHARGE)",
          "required": true, 
          "type": "string", 
          "validation": { "matches": [ "ULTRA_ADD_BALANCE", "ULTRA_PLAN_RECHARGE" ] }
        },
        {
          "name": "subproduct_id", 
          "required": false,
          "type": "string",
          "validation": { "min_strlen": 2, "max_strlen": 6 },
          "desc": "Ultra product SKU"
        },
        {
          "name": "sku",
          "required": true,
          "type": "string",
          "validation": { },
          "desc": "payment provider product SKU"
        },
        {
          "name": "load_amount",
          "type": "integer",
          "required": true,
          "validation": { "min_value": 250 , "max_value": 20000 },
          "desc": "Value in cents to load on to mobile. (Minimum value : 250). Fixed values required if product_id is ULTRA_PLAN_RECHARGE."
        },
        {
          "name": "provider_trans_id",
          "type": "string", 
          "required": true,
          "validation": { "min_strlen": 8 },
          "desc": "Transaction ID from Payment Provider"
        },
        {
          "name": "provider_name",
          "type": "string", 
          "required": true,
          "validation": { "min_strlen": 3 },
          "desc": "Provider name"
        }
      ],

      "returns":
      [
        "common-returns.json",
        "common-ePay-returns.json",

        { "name": "ultra_payment_trans_id", "type": "string",   "desc": "Ultra Payment Transaction ID (if success)"                           },
        { "name": "load_amount",            "type": "integer",  "desc": "Value loaded by the call (in cents) (if success)"                    },
        { "name": "provider_trans_id",      "type": "string",   "desc": "Payment Provider Transaction ID"                                     }
      ]
    },


    "externalpayments__CancelRealtimeReload":
    {
      "desc": "Allows you to void a balance application. Must be submitted within 120 seconds of the first request. ", 
      "parameters":
      [
        "common-parameters.json",
        "common-ePay-parameters.json",
        {
          "name": "cancel_type",
          "desc": "Cancellation type (VOID or REFUND)",
          "required": true,
          "type": "string", 
          "validation": { "matches": [ "VOID", "REFUND" ] }
        },
        {
          "name": "ultra_payment_trans_id",
          "desc": "Ultra Payment Transaction ID, required for cancel_type=REFUND", 
          "required": false,
          "type": "string",
          "validation": { "min_strlen": 3 }
        },
        {
          "name": "load_amount",
          "type": "integer",
          "required": true,
          "validation": { "min_value": 250 }, 
          "desc": "Value in cents originally loaded on to mobile. (Minimum value : 250)"
        },
        {
          "name": "provider_trans_id",
          "type": "string", 
          "required": true,
          "validation": { "min_strlen": 3 },
          "desc": "Transaction ID from Payment Provider"
        }
      ],

      "returns":
      [
        "common-returns.json",
        "common-ePay-returns.json",
        { "name": "ultra_payment_trans_id", "type": "string",   "desc": "Ultra Payment Transaction ID (if found)"            },
        { "name": "provider_trans_id",      "type": "string",   "desc": "Payment Provider Transaction ID"                    }
      ]
    }
  }
}
