{
  "meta": { "version": "1" },
  "security_meta": { "RBAC": "mint group" },
  "brands": ["MINT"],
  "description": "Univision API partner definitions",

  "commands":
  {
    "portal-public.json": "include",
    "portal.json": "include",
    "provisioning-public-include.json": "include"
  }
}
