{
  "meta": { "version": "1" },

  "security_meta": { "RBAC": "ui group" },

  "commands":
  {
      "ultrainfo__ZIPCoverageInfo":
      {
          "desc": "Provides the coverage levels of Ultra Service in the specified Zipcode", 
          "parameters":
          [
              "common-parameters.json",

              {
                  "name": "zipcode",
                  "type": "string", 
                  "required": true,
                  "validation": { "zipcode": "US" },
                  "desc": "ZIP code to investigate (5 digits)"
              }
          ],

          "returns":
          [
              "common-returns.json",

              { "name": "data",                   "type": "string[]", "desc": "JSON object array of 2g (gprs), 3g (umts) and 4g (hspa) quality speeds" },
              { "name": "voice",                  "type": "integer",  "desc": "Expected voice quality" }
          ]
      },

      "ultrainfo__InternationalCallingRates":
      {
          "desc": "Provides the calling card rates for the specified product",
          "parameters":
          [
              {
                  "name": "partner_tag",
                  "type": "string", 
                  "required": false,
                  "validation": { },
                  "desc": "Partner-supplied tag, to be returned as is."
              },
              {
                  "name": "product_name",
                  "desc": "Product (UVCARD, ULTRAMOBILE, or CALLINGCARD)",
                  "required": true,
                  "type": "string", 
                  "validation": { "matches": [ "UVCARD", "ULTRAMOBILE", "CALLINGCARD" ] }
              }
          ],

          "returns":
          [
              "common-returns.json",

              { "name": "rates_list",             "type": "string[]", "desc": "List of JSON-encoded country, rate name pairs" }
          ]
      },

      "ultrainfo__SMSCountryList":
      {
          "desc": "Provides a list of all the international locations an Ultra user can SMS.",
          "parameters":
          [
              "common-parameters.json"
          ],

          "returns":
          [
              "common-returns.json",

              {
                  "name": "sms_list",
                  "type": "string[]",
                  "desc": "List of JSON-encoded provider name, country pairs",
                  "context": "teldata_change_db();",
                  "includes": [ "db/htt_country_sms_carriers.php" ],
                  "sql_eval": "htt_country_sms_carriers_select_query(array());"
              }
          ]
      },

      "ultrainfo__GetLocations":
      {
          "desc": "Provides a list of the topup-only, and dealer locations, registered with Ultra.",
          "parameters":
          [
              "common-parameters.json",

              {
                  "name": "latitude",
                  "type": "real", 
                  "required": true,
                  "validation": { },
                  "desc": "Latitude as per Google"
              },
              {
                  "name": "longitude",
                  "type": "real", 
                  "required": true,
                  "validation": { },
                  "desc": "Longitude as per Google"
              },
              {
                  "name": "radius",
                  "type": "real", 
                  "required": true,
                  "validation": { },
                  "desc": "Search radius in miles"
              },
              {
                  "name": "max_entries",
                  "type": "integer",
                  "required": false,
                  "default": 50,
                  "validation": { "min_value": 0, "max_value": 50 },
                  "desc": "Maximum number of entries to return"
              },
              {
                  "name": "location_type",
                  "desc": "Product (TOPUP, DEALER, or ALL)",
                  "required": true,
                  "type": "string", 
                  "validation": { "matches": [ "TOPUP", "DEALER", "ALL" ] }
              },
              {
                  "name": "brand",
                  "type": "string",
                  "required": false,
                  "validation": { "matches": [ "ULTRA", "UNIVISION" ] },
                  "default": "ULTRA",
                  "desc":"The BRAND client belongs to"
              }
          ],

          "returns":
          [
              "common-returns.json",

              { "name": "location_list",          "type": "string[]", "desc": "List of JSON-encoded dealer objects" }
          ]
      }
  }
}
