{
  "meta": { "version": "2" },

  "security_meta": { "RBAC": "ui group" },

  "commands":
  {

      "ultrainfo__GetLocations":
      {
          "desc": "Provides a list of the topup-only, and dealer locations, registered with Ultra.",
          "parameters":
          [
              {
                  "name": "latitude",
                  "type": "real", 
                  "required": true,
                  "validation": { },
                  "desc": "Latitude as per Google"
              },
              {
                  "name": "longitude",
                  "type": "real", 
                  "required": true,
                  "validation": { },
                  "desc": "Longitude as per Google"
              },
              {
                  "name": "radius",
                  "type": "real", 
                  "required": true,
                  "validation": { },
                  "desc": "Search radius in miles"
              },
              {
                  "name": "max_entries",
                  "type": "integer",
                  "required": false,
                  "default": 50,
                  "validation": { "min_value": 0, "max_value" : 50 },
                  "desc": "Maximum number of entries to return"
              },
              {
                  "name": "location_type",
                  "desc": "Product (TOPUP, DEALER, or ALL)",
                  "required": true,
                  "type": "string", 
                  "validation": { "matches": [ "TOPUP", "DEALER", "ALL" ] }
              }
          ],

          "returns":
          [
              "common-returns.json",

              { "name": "location_list",          "type": "string[]", "desc": "List of JSON-encoded dealer objects" }
          ]
      },

      "ultrainfo__ZIPCoverageInfo":
      {
          "desc": "Provides the coverage level of Ultra Service in the specified Zipcode", 
          "parameters":
          [
              {
                  "name": "zipcode",
                  "type": "string", 
                  "required": true,
                  "validation": { "zipcode": "US" },
                  "desc": "ZIP code to investigate (5 digits)"
              }
          ],

          "returns":
          [
              "common-returns.json",

              { "name": "quality", "type": "integer",  "desc": "Expected quality" }
          ]
      },

      "ultrainfo__InternationalCallingRates":
      {
          "desc": "Provides the calling card rates for the specified product",
          "parameters":
          [
              {
                  "name": "product_name",
                  "desc": "Product (UVCARD, ULTRAMOBILE, or CALLINGCARD)",
                  "required": true,
                  "type": "string", 
                  "validation": { "matches": [ "UVCARD", "ULTRAMOBILE", "CALLINGCARD" ] }
              }
          ],

          "returns":
          [
              "common-returns.json",

              { "name": "rates_list", "type": "string[]", "desc": "List of JSON-encoded country, rate name pairs" }
          ]
      },

      "ultrainfo__SMSCountryList":
      {
          "desc": "Provides a list of all the international locations an Ultra user can SMS.",
          "parameters":
          [
          ],

          "returns":
          [
              "common-returns.json",

              {
                  "name": "sms_list",
                  "type": "string[]",
                  "desc": "List of JSON-encoded provider name, country pairs"
              }
          ]
      }
  }
}

