{
  "commands":
  {
    "dealerportal__LoginUser":
    {
      "desc": "verify credentials and create user session",
      "parameters":
      [
        {
          "name": "partner_tag",
          "type": "string",
          "required": false,
          "validation": { },
          "desc": "partner-supplied tag, to be returned as is"
        },
        {
          "name": "username",
          "type": "string",
          "required": true,
          "validation": { "min_strlen": 4 , "max_strlen": 20 },
          "desc": "login user name"
        },
        {
          "name": "password",
          "type": "string",
          "required": true,
          "validation": { },
          "desc": "login password"
        }
      ],

      "returns":
      [
        "common-returns.json",
        { "name": "security_token", "type": "string",   "desc": "session security token" },
        { "name": "reset_password", "type": "boolean",  "desc": "flag: UI must require password changed" },
        { "name": "user_id",        "type": "integer",  "desc": "user ID" },
        { "name": "first_name",     "type": "string",   "desc": "user first name" },
        { "name": "last_name",      "type": "string",   "desc": "user last name" },
        { "name": "access_role",    "type": "string",   "desc": "user access role within the organization" },
        { "name": "business_code",  "type": "string",   "desc": "user organization code" },
        { "name": "business_name",  "type": "string",   "desc": "user organization name" },
        { "name": "business_type",  "type": "string",   "desc": "user organization type" }
      ]
    }
  }
}