[
    { "name": "customer_id",          "type": "integer",  "desc": "Customer's unique identifier"              },
    { "name": "msisdn",               "type": "string",   "desc": "Customer's mobile number"                  },
    { "name": "iccid",                "type": "string",   "desc": "Customer's ICCID"                          },
    { "name": "created_date",         "type": "epoch",    "desc": "Customer's date of creation"               },
    { "name": "last_name",            "type": "string",   "desc": "Customer's last name"                      },
    { "name": "first_name",           "type": "string",   "desc": "Customer's first name"                     },
    { "name": "email",                "type": "string",   "desc": "Customer's email address"                  },
    { "name": "plan_name",            "type": "string",   "desc": "Customer's Ultra plan"                     },
    { "name": "plan_state",           "type": "string",   "desc": "Customer's plan state"                     },
    { "name": "balance",              "type": "real",     "desc": "Customer's wallet balance"                 },
    { "name": "stored_value",         "type": "real",     "desc": "Customer's stored value"                   },
    { "name": "plan_started",         "type": "epoch",    "desc": "Customer's plan start date"                },
    { "name": "service_expires_date", "type": "epoch",    "desc": "Customer's plan expiry date"               },
    { "name": "monthly_cc_renewal",   "type": "boolean",  "desc": "Is auto recharge turned on?"               },
    { "name": "cancelled_date",       "type": "epoch",    "desc": "Customer's cancellation date"              },
    { "name": "port_status",          "type": "string",   "desc": "Customer's portin status"                  },
    { "name": "port_query_status",    "type": "string",   "desc": "Customer's portin query status"            },
    { "name": "port_status_date",     "type": "epoch",    "desc": "Customer's portin status date"             }
]
