{
  "meta": { "version": "2" },
  "security_meta": { "RBAC": "mint group" },
  "brands": ["MINT"],
  "description": "Mint API partner definitions",

  "commands":
  {
    "portal-commands.json": "include",
    "provisioning.json": "include"
  }
}

