{
  "meta": { "version": "2" },

  "security_meta": { "RBAC": "publicprojw group" },

  "commands":
  {
    "publicprojw__ExportFile":
    {
      "desc": "Retrieve import information for a given file",
      "parameters":
      [
        {
          "name": "filename",
          "type": "string",
          "required": true,
          "validation": { "min_strlen": 8 , "max_strlen": 64 },
          "desc": "batch file name"
        }
      ],

      "returns":
      [
        "common-returns.json",
        { "name": "file_data", "type": "string[]", "desc": "Data for import file" }
      ]
    },
    "publicprojw__GetFileStats":
    {
      "desc": "Retrieves the statuses and counts for an import file",
      "parameters":
      [
        {
          "name": "filename",
          "type": "string",
          "required": true,
          "validation": { "min_strlen": 8 , "max_strlen": 64 },
          "desc": "batch file name"
        }
      ],

      "returns":
      [
        "common-returns.json",
        { "name": "statuses", "type": "string[]", "desc": "Statuses and their counts for the import file" }
      ]
    },
    "publicprojw__GetTodaysFiles":
    {
      "desc": "Retrieve filenames of UNIVISION_IMPORT records for current day",
      "parameters":
      [
      ],

      "returns":
      [
        "common-returns.json",
        { "name": "files", "type": "string[]", "desc": "Array of filenames" }
      ]
    },
    "publicprojw__ExportCDR":
    {
      "desc": "Retrieve CDR information for a given date",
      "parameters":
      [
        {
          "name": "import_date",
          "type": "string",
          "required": true,
          "validation": { },
          "desc": "import date of file"
        }
      ],

      "returns":
      [
        "common-returns.json",
        { "name": "file_data", "type": "string[]", "desc": "Data for import file" }
      ]
    },
    "publicprojw__ExportErrors":
    {
      "desc": "generate CSV file of import errors in UNIVISION_IMPORT", 
      "parameters":
      [
        {
          "name": "filename",
          "type": "string",
          "required": true,
          "validation": { "min_strlen": 8 , "max_strlen": 64 },
          "desc": "batch file name"
        }
      ],

      "returns":
      [
        "common-returns.json",
        { "name": "import_errors", "type": "string[]", "desc": "CVS of import errors" }
      ]
    }
  }
}
