{
  "meta": { "version": "2" },

  "security_meta": { "RBAC": "rainmaker group" },

  "commands":
  {
  	"customercare.json": "include",
    "customercare-interactivecare-rainmaker.json": "include",
    "customercare-internal-rainmaker.json": "include",
    "customercare-rainmaker.json": "include"
  }
}


