{
  "meta": { "version": "2" },

  "security_meta": { "RBAC": "ultrainfo group" },

  "commands":
  {
    "ultrainfo__GetOutageInfo":
    {
      "desc": "return outage info",
      "parameters":
      [
      ],

      "returns":
      [
        "common-returns.json",
        { "name": "enabled",            "type": "boolean",  "desc": "we are experiencing an outage" },
        { "name": "message",            "type": "string",   "desc": "outage reason" },
        { "name": "comprehensive",      "type": "boolean",  "desc": "outage affects internal services" }
      ]
    },

    "ultrainfo__FindDealersByZip":
    {
      "desc": "Given a zip code get a list of dealers in that area.",
      "parameters":
      [
        {
          "name": "msisdn",
          "type": "integer",
          "required": true,
          "validation": { "min_strlen": 10, "max_strlen": 11 },
          "desc": "customer phone number"
        },
        {
          "name": "zipcode",
          "type": "string",
          "required": false,
          "validation": { "zipcode": "US" },
          "desc": "zip code to search dealers in"
        },
        {
          "name": "shortcode",
          "type": "string",
          "required": false,
          "validation": { },
          "desc": "SMS keyword that triggered the API"
        },
        {
          "name": "language",
          "type": "string",
          "required": false,
          "validation": { "matches": [ "EN", "ES", "ZH" ] },
          "default": "EN",
          "desc":"The language to return errors in."
        },
        {
          "name": "brand",
          "type": "string",
          "required": false,
          "validation": { "matches": [ "ULTRA", "UNIVISION" ] },
          "default": "ULTRA",
          "desc":"The BRAND client belongs to"
        }
      ],

      "returns":
      [
        "common-returns.json",
        { "name": "message",  "type": "string",  "desc": "message to be returned to the customer via SMS containing dealer location or error message" }
      ]
    },

    "ultrainfo__GetLocations":
    {
      "desc": "Provides a list of the topup-only, and dealer locations, registered with Ultra.",
      "parameters":
      [
        {
          "name": "latitude",
          "type": "real",
          "required": true,
          "validation": { },
          "desc": "Latitude as per Google"
        },
        {
          "name": "longitude",
          "type": "real",
          "required": true,
          "validation": { },
          "desc": "Longitude as per Google"
        },
        {
          "name": "radius",
          "type": "real",
          "required": true,
          "validation": { },
          "desc": "Search radius in miles"
        },
        {
          "name": "max_entries",
          "type": "integer",
          "required": false,
          "default": 50,
          "validation": { "min_value": 0, "max_value" : 50 },
          "desc": "Maximum number of entries to return"
        },
        {
          "name": "location_type",
          "desc": "Product (TOPUP, DEALER, or ALL)",
          "required": true,
          "type": "string",
          "validation": { "matches": [ "TOPUP", "DEALER", "ALL" ] }
        },
        {
            "name": "brand",
            "type": "string",
            "required": false,
            "validation": { "matches": [ "ULTRA", "UNIVISION" ] },
            "default": "ULTRA",
            "desc":"The BRAND client belongs to"
        }
      ],

      "returns":
      [
        "common-returns.json",

        { "name": "location_list",          "type": "string[]", "desc": "List of JSON-encoded dealer objects" }
      ]
    },

    "ultrainfo__CalculateTax":
    {
      "desc": "Calculates taxes",
      "parameters":
      [
        {
          "name": "amount",
          "type": "integer",
          "required": true,
          "validation": { },
          "desc": "amount"
        },
        {
          "name": "zipCode",
          "type": "integer",
          "required": true,
          "validation": { },
          "desc": "zipCode"
        }
      ],

      "returns":
      [
        "common-returns.json",
        { "name": "tax", "type": "integer", "desc": "" }
      ]
    }
  }
}
